Total;Union(jaccard);Mean(dice);Volume sim;False Negative;False Positive;Slice number;Frame number;
1;0.01504128981517892;0.02963680387409201;1.940726392251816;0;0.9849587101848211;0;128;
0.8872093023255814;0.4454173963806188;0.6163166397415186;0.6106623586429726;0.1127906976744186;0.5278465346534653;0;139;
1;0.3833211411850768;0.5542041248016922;0.8915917503966155;0;0.6166788588149232;0;148;
0.7427616926503341;0.5494233937397035;0.709197235513025;0.09037745879851143;0.2572383073496659;0.3214649033570702;0;159;
1;0.01440835383302375;0.02840740374146293;1.943185192517074;0;0.9855916461669763;0;168;
0.8878600823045267;0.8664658634538153;0.9284561592253899;-0.09144701452393759;0.1121399176954733;0.02705749718151071;0;179;
1;0.005952380952380952;0.01183431952662722;1.976331360946746;0;0.9940476190476191;0;188;
1;0.02201199530080999;0.04307580615887228;1.913848387682255;0;0.97798800469919;0;199;
