Total;Union(jaccard);Mean(dice);Volume sim;False Negative;False Positive;Slice number;Frame number;
0.9780971937029432;0.8848297213622291;0.9388961892247044;0.08015768725361366;0.02190280629705681;0.09728363866077069;0;46;
0.9415983606557377;0.9121588089330025;0.9540617700493121;-0.02647287827666753;0.0584016393442623;0.03314045239347712;0;59;
0.9833546734955185;0.9264173703256936;0.9618033813400125;0.04383218534752661;0.01664532650448143;0.05882352941176471;0;66;
0.9861177596936334;0.9317051108095884;0.9646452821353313;0.04354952001873098;0.01388224030636668;0.05591200733272227;0;79;
0.9569575471698113;0.8942148760330578;0.944153577661431;0.02675974403723095;0.04304245283018868;0.06831228473019518;0;86;
0.9488206497552292;0.7940409683426444;0.8851982561760432;0.1341083662030309;0.05117935024477081;0.1704280155642023;0;99;
0.8776157260621433;0.8362537764350453;0.9108259295820994;-0.07568279039157617;0.1223842739378567;0.0533515731874145;0;106;
0.9365004703668862;0.8316624895572264;0.9080957810718359;0.06066134549600912;0.06349952963311382;0.1186365648517043;0;119;
0.905823148813803;0.8519269776876268;0.9200438116100766;-0.03139832055494706;0.09417685118619698;0.06528189910979229;0;126;
0.8801261829652997;0.8307692307692308;0.907563025210084;-0.0623475196530225;0.1198738170347003;0.06323447118074986;0;139;
0.9535655058043118;0.9047993705743509;0.950020652622883;0.007434944237918215;0.04643449419568822;0.05349794238683128;0;146;
0.8166112956810632;0.7480219111381619;0.8558495821727019;-0.09610027855153204;0.1833887043189369;0.1009509875640088;0;159;
0.9632465543644717;0.8022959183673469;0.8903043170559094;0.151450813871196;0.03675344563552833;0.1723684210526316;0;166;
0.799163179916318;0.764;0.8662131519274376;-0.1678004535147392;0.200836820083682;0.05445544554455446;0;179;
1;0.6035087719298246;0.7527352297592997;0.4945295404814005;0;0.3964912280701754;0;186;
1;0.28975487115022;0.4493177387914229;1.101364522417154;0;0.71024512884978;0;199;
1;0.3852813852813853;0.55625;0.8875;0;0.6147186147186147;0;206;
1;0.2482100238663484;0.3977055449330784;1.204588910133843;0;0.7517899761336515;0;219;
