Total;Union(jaccard);Mean(dice);Volume sim;False Negative;False Positive;Slice number;Frame number;
0.7703252032520326;0.2333743842364532;0.3784323514727908;1.017473789316026;0.2296747967479675;0.7491727332892124;0;79;
0.8211586901763224;0.6392156862745098;0.7799043062200957;0.1004784688995215;0.1788413098236776;0.2574031890660592;0;86;
0.8422897196261683;0.8393480791618161;0.9126582278481014;-0.1670886075949367;0.1577102803738318;0.004143646408839779;0;99;
1;0.008338446092922081;0.01653898276958818;1.966922034460824;0;0.9916615539070779;0;106;
0.7215980024968789;0.7215980024968789;0.8382886149383612;-0.3234227701232777;0.2784019975031211;0;0;119;
0.1509433962264151;0.1509433962264151;0.2622950819672131;-1.475409836065574;0.8490566037735849;0;0;126;
0.7282321899736148;0.7225130890052356;0.8389057750759878;-0.303951367781155;0.2717678100263852;0.01075268817204301;0;139;
0.7699115044247787;0.7073170731707317;0.8285714285714285;-0.1523809523809524;0.2300884955752212;0.1030927835051546;0;146;
0.8669950738916257;0.2871125611745514;0.4461343472750317;0.9708491761723701;0.1330049261083744;0.6996587030716723;0;159;
1;0.112280701754386;0.2018927444794953;1.59621451104101;0;0.887719298245614;0;166;
0.9008810572687225;0.275235531628533;0.4316622691292876;1.041688654353562;0.09911894273127753;0.7161693268563497;0;179;
1;0.006713823282580026;0.01333809693938311;1.973323806121234;0;0.9932861767174199;0;199;
