Total;Union(jaccard);Mean(dice);Volume sim;False Negative;False Positive;Slice number;Frame number;
0.9961013645224172;0.6933514246947082;0.8189102564102564;0.3557692307692308;0.003898635477582846;0.3047619047619048;0;7;
0.9307479224376731;0.909952606635071;0.9528535980148882;-0.04750088621056363;0.06925207756232687;0.02396514161220044;0;19;
0.6907020872865275;0.6893939393939394;0.8161434977578476;-0.3632286995515695;0.3092979127134725;0.00273972602739726;0;27;
0.9421364985163204;0.9084406294706724;0.952023988005997;-0.02098950524737631;0.05786350148367952;0.03787878787878788;0;39;
0.8043052837573386;0.6586538461538461;0.7942028985507246;0.0251207729468599;0.1956947162426614;0.2156488549618321;0;47;
0.882398753894081;0.8367799113737076;0.9111379171692803;-0.06513872135102533;0.117601246105919;0.05818786367414797;0;59;
0.9621928166351607;0.1145364536453645;0.2055320008075913;1.572784171209368;0.03780718336483932;0.8849457504520796;0;67;
0.8157894736842105;0.7928388746803069;0.8844507845934378;-0.1683309557774608;0.1842105263157895;0.03426791277258567;0;79;
1;0.07434197307615029;0.1383953618851692;1.723209276229662;0;0.9256580269238497;0;87;
0.6796008869179601;0.6528221512247071;0.7899484536082475;-0.3247422680412371;0.3203991130820399;0.05692307692307692;0;99;
0.6382978723404256;0.6217616580310881;0.7667731629392971;-0.402555910543131;0.3617021276595745;0.04;0;107;
0.6811594202898551;0.6482758620689655;0.7866108786610878;-0.3096234309623431;0.3188405797101449;0.06930693069306931;0;119;
