Total;Union(jaccard);Mean(dice);Volume sim;False Negative;False Positive;Slice number;Frame number;
0.9123204837490552;0.834716459197787;0.9099133056916697;0.005277044854881266;0.08767951625094482;0.0924812030075188;0;6;
0.8405725567620927;0.8287104622871047;0.9063331559340074;-0.1564662054284194;0.1594274432379072;0.01674364896073903;0;19;
0.9967384213959556;0.3662511984659635;0.5361403508771929;0.9242105263157895;0.003261578604044357;0.6333093352531798;0;26;
0.6446153846153846;0.6446153846153846;0.7839101964452759;-0.4321796071094481;0.3553846153846154;0;0;39;
0.6624246483590087;0.6624246483590087;0.7969379532634971;-0.4061240934730057;0.3375753516409913;0;0;46;
0.6179168915272532;0.6136120042872455;0.7605446695450017;-0.4616406509465294;0.3820831084727469;0.01122625215889465;0;59;
0.3582196697774587;0.3582196697774587;0.5274841437632135;-0.945031712473573;0.6417803302225413;0;0;66;
0.6677852348993288;0.6659973226238286;0.799517878666131;-0.3945359582161511;0.3322147651006712;0.004004004004004004;0;79;
0.6023017902813299;0.6023017902813299;0.7517956903431764;-0.4964086193136473;0.3976982097186701;0;0;86;
0.7094220110847189;0.707740916271722;0.8288621646623497;-0.3367252543940796;0.2905779889152811;0.003337041156840935;0;99;
0.4597249508840864;0.4597249508840864;0.6298788694481831;-0.7402422611036339;0.5402750491159135;0;0;106;
0.6256572029442692;0.6243441762854145;0.7687338501291989;-0.4573643410852713;0.3743427970557308;0.003350083752093802;0;119;
0.3970149253731343;0.3970149253731343;0.5683760683760684;-0.8632478632478633;0.6029850746268657;0;0;126;
0.6433990895295902;0.637593984962406;0.7786960514233241;-0.4205693296602387;0.3566009104704097;0.01395348837209302;0;139;
0.8160377358490566;0.7757847533632287;0.8737373737373737;-0.1414141414141414;0.1839622641509434;0.05978260869565218;0;146;
0.7684210526315789;0.73;0.8439306358381503;-0.1965317919075145;0.2315789473684211;0.0641025641025641;0;159;
