Total;Union(jaccard);Mean(dice);Volume sim;False Negative;False Positive;Slice number;Frame number;
1;0.7860262008733624;0.8801955990220048;0.2396088019559902;0;0.2139737991266376;0;82;
0.9035230352303523;0.9015684153596538;0.9482366325369738;-0.09897610921501707;0.09647696476964769;0.00239377618192699;0;95;
0.3923337091319053;0.3888268156424581;0.5599356395816573;-0.8543845534995977;0.6076662908680946;0.02247191011235955;0;102;
0.1845329249617152;0.1836890243902439;0.3103670315518351;-1.36381197681906;0.8154670750382849;0.0242914979757085;0;115;
0.8310454065469906;0.8038815117466803;0.8912797281993206;-0.144960362400906;0.1689545934530095;0.03907203907203907;0;122;
0.7926158680282797;0.78277734678045;0.8781549173194082;-0.2158398607484769;0.2073841319717203;0.01560975609756098;0;135;
0.4777006937561942;0.4777006937561942;0.6465459423205902;-0.7069081153588196;0.5222993062438057;0;0;142;
0.5209302325581395;0.5209302325581395;0.6850152905198776;-0.6299694189602446;0.4790697674418605;0;0;155;
0.4512040557667934;0.4512040557667934;0.6218340611353712;-0.7563318777292577;0.5487959442332065;0;0;162;
0.4347357065803668;0.4347357065803668;0.6060150375939849;-0.7879699248120301;0.5652642934196332;0;0;175;
0.7292817679558011;0.7272727272727273;0.8421052631578948;-0.3094098883572568;0.2707182320441989;0.003773584905660377;0;182;
0.48;0.48;0.6486486486486487;-0.7027027027027027;0.52;0;0;195;
0.95578231292517;0.1430025445292621;0.2502226179875334;1.47640249332146;0.04421768707482993;0.8560450819672131;0;215;
