Total;Union(jaccard);Mean(dice);Volume sim;False Negative;False Positive;Slice number;Frame number;
0.4340588988476313;0.4318471337579618;0.603202846975089;-0.7793594306049823;0.5659411011523687;0.01166180758017493;0;27;
0.9265477439664218;0.9047131147540983;0.9499731038192576;-0.05056481979558903;0.07345225603357818;0.02538631346578367;0;39;
0.9322381930184805;0.899009900990099;0.9468196037539104;-0.03128258602711158;0.06776180698151951;0.03813559322033899;0;47;
0.9144542772861357;0.8732394366197183;0.9323308270676691;-0.03909774436090226;0.08554572271386431;0.049079754601227;0;59;
0.9260450160771704;0.560856864654333;0.7186525265127885;0.4479101684341859;0.07395498392282958;0.4128440366972477;0;67;
0.9399999999999999;0.8569424964936886;0.9229607250755287;0.03625377643504532;0.06;0.09347181008902077;0;79;
0.8997005988023952;0.6455424274973147;0.7845953002610966;0.2558746736292428;0.1002994011976048;0.3043981481481481;0;87;
0.9752449716348633;0.7640404040404041;0.8662391204764086;0.2235455794777829;0.02475502836513667;0.2208487845076226;0;99;
0.8412419449326304;0.5406626506024096;0.7018572825024438;0.3313782991202346;0.1587580550673696;0.3979035639412998;0;107;
0.816468253968254;0.8052837573385518;0.8921409214092141;-0.1853658536585366;0.183531746031746;0.01672640382317802;0;119;
0.901219512195122;0.8699234844025897;0.9304375196726472;-0.06484104501101669;0.09878048780487805;0.03838646714378659;0;127;
0.8533739218670725;0.8529411764705882;0.9206349206349206;-0.1576354679802956;0.1466260781329274;0.0005941770647653001;0;139;
0.9572388515577276;0.7970498474059003;0.8870648174356071;0.1466176054344749;0.04276114844227245;0.1735232067510548;0;147;
0.8824821526633718;0.8575240128068303;0.9232979029014651;-0.09250215455328928;0.1175178473366282;0.03192771084337349;0;159;
0.8097251585623678;0.8080168776371308;0.8938156359393232;-0.2077012835472579;0.1902748414376321;0.002604166666666667;0;167;
0.8991077556623198;0.8923705722070845;0.9431245500359972;-0.09791216702663787;0.1008922443376802;0.008327024981074944;0;179;
0.6455566905005107;0.6455566905005107;0.7846058348851646;-0.430788330229671;0.3544433094994893;0;0;187;
0.7314009661835749;0.7314009661835749;0.8448660714285715;-0.3102678571428572;0.2685990338164251;0;0;199;
0.7049180327868853;0.6963562753036437;0.8210023866348449;-0.3293556085918855;0.2950819672131147;0.01714285714285714;0;207;
0.9877300613496932;0.7155555555555555;0.8341968911917098;0.310880829015544;0.01226993865030675;0.2780269058295964;0;219;
